…
# basic builder with defaults

    Code
      builder_out
    Output
      # A tibble: 46 x 3
         PB_359074 PB_359100 PB_359126
             <int>     <int>     <int>
       1    359074    359100    359126
       2    359091    359287    359131
       3    359094    359327    359149
       4    359234    359558    359263
       5    359136    359323    359295
       6    359177    359410    359367
       7    359169    359692    359258
       8    359175    359584    359212
       9    359209    359690    359390
      10    359239    359567    359280
      # ... with 36 more rows

---

    Code
      builder_out
    Output
      # A tibble: 97 x 3
         PB_359126 PB_359074 PB_359095
             <int>     <int>     <int>
       1    359126    359074    359095
       2    359131    359091    359100
       3    359149    359094    359174
       4    359182    359136    359245
       5    359183    359169    359287
       6    359198    359175    359323
       7    359210    359177    359327
       8    359211    359209    359392
       9    359212    359217    359410
      10    359258    359218    359527
      # ... with 87 more rows
